Getting to Know infer
…
hypothesize() allows you to declare the null hypothesis.

generate() allows you to generate data reflecting the null hypothesis.

calculate() allows you to calculate a distribution of statistics from the generated data to form the null distribution.

Specify

The specify function can be used to specify which of the variable(s) in the dataset you’re interested in. If you’re only interested in, say, the age of the respondents, you might write:

gss %>%
  specify(response = age)

## Response: age (numeric)
## # A tibble: 500 x 1
##      age
##    <dbl>
##  1    36
##  2    34
##  3    24
##  4    42
##  5    31
##  6    32
##  7    48
##  8    36
##  9    30
## 10    33
## # … with 490 more rows
…
gradethis::grade_code(correct = paste0(gradethis::random_praise(),
    " That's it for generate()."))

Calculate

Depending on whether you’re carrying out computation-based inference or theory-based inference, you will either supply calculate() with the output of generate() or hypothesize, respectively. The function also takes in a stat argument, which is currently one of “mean”, “median”, “sum”, “sd”, “prop”, “count”, “diff in means”, “diff in medians”, “diff in props”, “Chisq”, “F”, “t”, “z”, “slope”, or “correlation”. For example, continuing our example above to calculate the null distribution of mean hours worked per week:

gss %>%
  specify(response = hours) %>%
  hypothesize(null = "point", mu = 40) %>%
  generate(reps = 1000, type = "bootstrap") %>%
  calculate(stat = "mean")

## # A tibble: 1,000 x 2
##    replicate  stat
##        <int> <dbl>
##  1         1  39.3
##  2         2  39.8
##  3         3  41.1
##  4         4  40.5
##  5         5  38.9
##  6         6  40.7
##  7         7  39.9
##  8         8  39.8
##  9         9  39.2
## 10        10  40.6
## # … with 990 more rows
…
gradethis::grade_code(correct = paste0(gradethis::random_praise(),
    " Now let's try working with two variables."))

If you’re carrying out inference on differences in means, medians, or proportions, or t and z statistics, you will need to supply an order argument, giving the order in which the explanatory variables should be subtracted. For instance, to find the difference in mean age of those that have a college degree and those that don’t, we might write:

gss %>%
  specify(age ~ college) %>%
  hypothesize(null = "independence") %>%
  generate(reps = 1000, type = "permute") %>%
  calculate("diff in means", order = c("degree", "no degree"))

## # A tibble: 1,000 x 2
##    replicate   stat
##        <int>  <dbl>
##  1         1  0.518
##  2         2 -1.24 
##  3         3 -1.11 
##  4         4  1.28 
##  5         5 -1.02 
##  6         6 -0.787
##  7         7  0.271
##  8         8  1.41 
##  9         9  1.17 
## 10        10  1.77 
## # … with 990 more rows
…
